<?xml version="1.0" encoding="utf-8"?>
<!-- Generator: Adobe Illustrator 27.0.0, SVG Export Plug-In . SVG Version: 6.00 Build 0)  -->
<svg version="1.1" id="Layer_1" xmlns="http://www.w3.org/2000/svg" xmlns:xlink="http://www.w3.org/1999/xlink" x="0px" y="0px"
	 viewBox="0 0 512 512" style="enable-background:new 0 0 512 512;" xml:space="preserve">
<style type="text/css">
	.st0{fill:#F35045;}
</style>
<g id="XMLID_1_">
	<path id="XMLID_3_" class="st0" d="M320.9,415.88c4.06,5.74,6.45,5.32,9.53,4.06c3.08-1.4,162.96-55.21,167.86-57.03
		c4.9-1.82,3.36-3.36,1.82-5.74c-1.54-2.38-54.79-74.82-57.45-79.03c-2.66-4.2-4.06-3.36-8.27-1.96l-169.41,44.14
		C264.85,320.04,316.83,409.99,320.9,415.88z"/>
	<path id="XMLID_4_" class="st0" d="M511.74,342.17V257.4c-19.06,5.04-43.16,11.49-52.69,14.01
		C473.35,290.61,495.91,320.74,511.74,342.17z"/>
	<path id="XMLID_5_" class="st0" d="M458.91,167.16c-2.66,0.56-60.39,11.07-64.04,11.49c-3.5,0.42-2.38,2.52-0.98,4.48l50.86,69.78
		c0,0,62.21-15.41,66-16.25c0.28,0,0.56-0.14,0.84-0.28v-9.25c-11.35-14.29-42.18-53.39-44.84-57.03
		C463.82,165.9,461.44,166.6,458.91,167.16z"/>
	<path id="XMLID_6_" class="st0" d="M95.16,57.45c12.47-0.56,13.73,2.24,19.2,10.37l138.16,231.06l173.75-41.62
		c-9.67-13.59-53.39-75.67-57.59-81.55c-4.76-6.59,0.14-9.67,7.85-11.07c7.71-1.26,74.26-12.47,79.87-13.31
		c5.74-0.84,10.23-2.8,19.48,8.27c4.76,5.74,20.74,25.64,35.87,44.42V95.98c0-26.48-9.39-49.04-28.16-67.82S442.24,0,415.76,0H96.14
		C69.66,0,47.1,9.39,28.32,28.16C17.54,38.95,9.97,51,5.34,64.18C36.73,61.93,86.33,57.87,95.16,57.45z"/>
	<path id="XMLID_7_" class="st0" d="M336.45,446.98c-14.71,4.48-21.16,6.59-30.83-6.73c-7.15-9.95-45.82-79.59-64.74-113.92
		c-35.87,9.39-101.45,26.48-120.5,31.11c-18.5,4.48-26.34-6.59-29.43-13.45c-2.1-4.76-56.33-121.62-90.8-196.45v268.47
		c0,26.48,9.39,49.04,28.16,67.82C47.1,502.61,69.66,512,96.14,512h319.61c26.48,0,49.04-9.39,67.82-28.16
		c18.78-18.78,28.16-41.34,28.16-67.82v-31.53C472.51,398.64,346.4,443.9,336.45,446.98z"/>
	<path id="XMLID_8_" class="st0" d="M120.94,330.54c5.18-1.12,102.57-24.52,104.53-24.94c2.1-0.42,3.36-1.68,1.12-5.46
		C224.35,296.21,96.84,76.23,96.84,76.23c-1.12-1.96-0.84-2.66-4.06-2.52c-2.8,0.14-74.96,6.59-91.64,7.99
		c-0.56,3.5-0.84,7.01-0.98,10.65c16.95,34.75,114.34,235.4,114.76,237.08C115.76,331.1,115.76,331.67,120.94,330.54z"/>
</g>
</svg>
