<?xml version="1.0" encoding="utf-8"?>
<!-- Generator: Adobe Illustrator 26.5.0, SVG Export Plug-In . SVG Version: 6.00 Build 0)  -->
<svg version="1.1" id="Layer_1" xmlns="http://www.w3.org/2000/svg" xmlns:xlink="http://www.w3.org/1999/xlink" x="0px" y="0px"
	 viewBox="0 0 512 512" style="enable-background:new 0 0 512 512;" xml:space="preserve">
<style type="text/css">
	.st0{fill:#FFFFFF;}
	.st1{fill:url(#XMLID_00000171690855438359558480000017000393860152065717_);}
</style>
<g id="XMLID_1_">
	<circle id="XMLID_3_" class="st0" cx="256" cy="256" r="256"/>
	
		<linearGradient id="XMLID_00000073706997811526665650000017195849570544315287_" gradientUnits="userSpaceOnUse" x1="6.2722" y1="507.0394" x2="8.272" y2="507.0394" gradientTransform="matrix(0 157.5793 117.6623 0 -59403.4258 -889.933)">
		<stop  offset="0" style="stop-color:#58B0E3"/>
		<stop  offset="1" style="stop-color:#F44E28"/>
	</linearGradient>
	<polygon id="XMLID_4_" style="fill:url(#XMLID_00000073706997811526665650000017195849570544315287_);" points="373.64,98.44 
		358.17,98.44 256.47,245.29 255.53,245.29 154.07,98.44 138.36,98.44 247.85,256.47 138.82,413.56 154.3,413.56 255.3,267.17 
		256.23,267.17 357.24,413.56 372.95,413.56 263.91,256.47 	"/>
</g>
</svg>
