[
  {
    "leng": "Español",
    "stars": [
      "fa fa-star",
      "fa fa-star",
      "fa fa-star",
      "fa fa-star",
      "fa fa-star"
    ],
    "description": "Nativo"
  },{
    "leng": "Ingles",
    "stars": [
      "fa fa-star",
      "fa-solid fa-star-half-stroke",
      "fa-regular fa-star",
      "fa-regular fa-star",
      "fa-regular fa-star"
    ],
    "description": "Basico"
  }
]
