{
	"name": "Joaquin Decima",
	"avatar": "/img/profile.webp",
	"title": "Software Architect",
	"contactURL": "https://t.me/patojad",
	"about": "► Diseño de Arquitectura de Microservcios \n     • Diseño de soluciones bajo Arquitectura de microservicios. \n     • Establecer estándares de desarrollo. \n     • Acompañar a celulas de producto en la implementación y puesta en producción de las diferentes soluciones. \n \n ► Desarrollo de Microservcios \n     • Creación y puesta en marcha de microservicios en NodeJS. \n     • Colaboración en el diseño y estructura de Arquitectura backend. \n \n \n ► Tecnologías Utilizadas \n     ♦ NodeJS (TypeScript) \n     ♦ NestJS / Express \n     ♦ Linux \n     ♦ Azure Plataform \n     ♦ AWS Plataform \n     ♦ Git \n     ♦ Jira \n     ♦ Confluence \n     ♦ Swagger \n     ♦ MongoDB \n     ♦ Redis",
	"codersrank": "joaquindecima"
}
