[
	{
		"name": "JavaScript",
		"url": "/img/icons/nodejs.svg"
	},
	{
		"name": "TypeScript",
		"url": "/img/icons/typescript.svg"
	},
	{
		"name": "NestJS",
		"url": "/img/icons/nestjs.svg"
	},
	{
		"name": "ExpressJS",
		"url": "/img/icons/express.svg"
	},
	{
		"name": "VueJS",
		"url": "/img/icons/vuejs.svg"
	},
	{
		"name": "ReactJS",
		"url": "/img/icons/react.svg"
	},
	{
		"name": "HTML",
		"url": "/img/icons/html.svg"
	},
	{
		"name": "SASS",
		"url": "/img/icons/sass.svg"
	},
	{
		"name": "CSS",
		"url": "/img/icons/css.svg"
	},
	{
		"name": "Bootstrap",
		"url": "/img/icons/bootstrap.svg"
	},
	{
		"name": "Materialize",
		"url": "/img/icons/materialize.svg"
	},
	{
		"name": "Python",
		"url": "/img/icons/python.svg"
	},
	{
		"name": "Java",
		"url": "/img/icons/java.svg"
	},
	{
		"name": "MongoDB",
		"url": "/img/icons/mongodb.svg"
	},
	{
		"name": "MariaDB",
		"url": "/img/icons/mariadb.svg"
	},
	{
		"name": "Redis",
		"url": "/img/icons/redis.svg"
	},
	{
		"name": "PHP",
		"url": "/img/icons/php.svg"
	},
	{
		"name": "Laravel",
		"url": "/img/icons/laravel.svg"
	},
	{
		"name": "Git",
		"url": "/img/icons/git.svg"
	},
	{
		"name": "GitHub",
		"url": "/img/icons/github.svg"
	},
	{
		"name": "GitLab",
		"url": "/img/icons/gitlab.svg"
	},
	{
		"name": "Swagger",
		"url": "/img/icons/swagger.svg"
	},
	{
		"name": "Jira",
		"url": "/img/icons/jira.svg"
	},
	{
		"name": "Confluence",
		"url": "/img/icons/confluence.svg"
	},
	{
		"name": "Bash",
		"url": "/img/icons/bash.svg"
	},
	{
		"name": "Azure",
		"url": "/img/icons/azure.svg"
	},
	{
		"name": "AWS",
		"url": "/img/icons/aws.svg"
	},
	{
		"name": "GNU/Linux",
		"url": "/img/icons/linux.svg"
	},
	{
		"name": "MacOS",
		"url": "/img/icons/macos.svg"
	},
	{
		"name": "Windows",
		"url": "/img/icons/windows.svg"
	}
]